sem3/AVM/Q42/simulation/qsim/Q42.msim.vcd
$comment
	File created using the following command:
		vcd file Q42.msim.vcd -direction
$end
$date
	Mon Nov 27 11:48:59 2023
$end
$version
	ModelSim Version 10.1d
$end
$timescale
	1ps
$end
$scope module Q42_vlg_vec_tst $end
$var reg 1 ! a $end
$var reg 1 " b $end
$var reg 1 # clock $end
$var wire 1 $ q [3] $end
$var wire 1 % q [2] $end
$var wire 1 & q [1] $end
$var wire 1 ' q [0] $end
$var wire 1 ( sampler $end
$scope module i1 $end
$var wire 1 ) gnd $end
$var wire 1 * vcc $end
$var wire 1 + unknown $end
$var tri1 1 , devclrn $end
$var tri1 1 - devpor $end
$var tri1 1 . devoe $end
$var wire 1 / q[0]~output_o $end
$var wire 1 0 q[1]~output_o $end
$var wire 1 1 q[2]~output_o $end
$var wire 1 2 q[3]~output_o $end
$var wire 1 3 clock~input_o $end
$var wire 1 4 clock~inputclkctrl_outclk $end
$var wire 1 5 b~input_o $end
$var wire 1 6 a~input_o $end
$var wire 1 7 newq[1]~3_combout $end
$var wire 1 8 $00001~q $end
$var wire 1 9 newq[2]~5_combout $end
$var wire 1 : newq[2]~4_combout $end
$var wire 1 ; newq[2]~6_combout $end
$var wire 1 < $00002~q $end
$var wire 1 = newq[3]~8_combout $end
$var wire 1 > newq[3]~7_combout $end
$var wire 1 ? newq[3]~9_combout $end
$var wire 1 @ $00003~q $end
$var wire 1 A newq[0]~1_combout $end
$var wire 1 B newq[0]~0_combout $end
$var wire 1 C newq[0]~2_combout $end
$var wire 1 D $00000~q $end
$upscope $end
$upscope $end
$enddefinitions $end
#0
$dumpvars
0!
0"
0#
0'
0&
0%
0$
x(
0)
1*
x+
1,
1-
1.
0/
00
01
02
03
04
05
06
07
08
09
0:
1;
0<
0=
0>
0?
0@
0A
0B
1C
0D
$end
#5000
1#
13
14
0(
1D
1<
1B
1A
1?
1:
19
17
1/
11
1'
1%
0C
0;
#10000
0#
03
04
1(
#15000
1#
13
14
0(
0D
1@
0<
18
0B
0A
0?
0:
1>
1=
0/
12
01
10
0'
1$
0%
1&
1C
1?
#20000
0#
03
04
1(
#25000
1#
13
14
0(
1D
09
07
1/
1'
1;
#30000
0#
03
04
1(
#35000
1#
13
14
0(
1<
08
1A
0>
11
00
1%
0&
0C
0?
#40000
0#
03
04
1(
#45000
1#
13
14
0(
0D
0@
1?
17
0=
0/
02
0'
0$
0?
#50000
0#
03
04
1(
#55000
1#
13
14
0(
18
0A
10
1&
1C
#60000
0#
03
04
1(
#65000
1#
13
14
0(
1D
1A
1?
19
07
1/
1'
0C
0;
#70000
0#
03
04
1(
#75000
1#
13
14
0(
0D
1@
0<
08
1B
0A
0?
1:
09
17
0/
12
01
00
0'
1$
0%
0&
1C
#80000
0#
03
04
1(
#85000
1#
13
14
0(
1D
0@
18
0B
1A
1?
0:
19
07
1>
1/
02
10
1'
0$
1&
0C
0?
#90000
0#
03
04
1(
#95000
1#
13
14
0(
0D
08
0A
1?
09
0>
0/
00
0'
0&
1C
1;
0?
#100000
0#
03
04
1(
#105000
1#
13
14
0(
1D
1<
1B
1A
1?
1:
19
17
1/
11
1'
1%
0C
0;
#110000
0#
03
04
1(
#115000
1#
13
14
0(
0D
1@
0<
18
0B
0A
0?
0:
1>
1=
0/
12
01
10
0'
1$
0%
1&
1C
1?
#120000
0#
03
04
1(
#125000
1#
13
14
0(
1D
09
07
1/
1'
1;
#130000
0#
03
04
1(
#135000
1#
13
14
0(
1<
08
1A
0>
11
00
1%
0&
0C
0?
#140000
0#
03
04
1(
#145000
1#
13
14
0(
0D
0@
1?
17
0=
0/
02
0'
0$
0?
#150000
0#
03
04
1(
#155000
1#
13
14
0(
18
0A
10
1&
1C
#160000
0#
03
04
1(
#165000
1#
13
14
0(
1D
1A
1?
19
07
1/
1'
0C
0;
#170000
0#
03
04
1(
#175000
1#
13
14
0(
0D
1@
0<
08
1B
0A
0?
1:
09
17
0/
12
01
00
0'
1$
0%
0&
1C
#180000
1!
0#
16
03
04
1(
0C
1>
1=
1;
1?
#185000
1#
13
14
0(
1<
18
0B
1A
0>
0=
0:
19
11
10
1%
1&
0?
0;
#190000
0#
03
04
1(
#195000
1#
13
14
0(
0@
0<
0A
1>
07
02
01
0$
0%
1C
1?
#200000
0#
03
04
1(
#205000
1#
13
14
0(
1D
1@
08
1A
0?
09
1=
1/
12
00
1'
1$
0&
0C
1;
1?
#210000
0#
03
04
1(
#215000
1#
13
14
0(
0D
1<
0A
19
17
0>
0/
11
0'
1%
1C
0;
#220000
0#
03
04
1(
#225000
1#
13
14
0(
1D
0<
18
0?
09
07
1>
1/
01
10
1'
0%
1&
1;
1?
#230000
0#
03
04
1(
#235000
1#
13
14
0(
1<
08
1A
0>
11
00
1%
0&
0C
0?
#240000
0#
03
04
1(
#245000
1#
13
14
0(
0D
0@
1?
17
0=
0/
02
0'
0$
0?
#250000
0#
03
04
1(
#255000
1#
13
14
0(
18
0A
10
1&
1C
#260000
0#
03
04
1(
#265000
1#
13
14
0(
1D
1A
1?
19
07
1/
1'
0C
0;
#270000
0#
03
04
1(
#275000
1#
13
14
0(
0D
1@
0<
08
1B
0A
0?
1:
09
17
1>
1=
0/
12
01
00
0'
1$
0%
0&
1;
1?
#280000
1"
0!
0#
15
06
03
04
1(
1C
0;
0>
0=
0?
#285000
1#
13
14
0(
1D
0@
18
0B
1A
1?
0:
19
07
1>
1/
02
10
1'
0$
1&
0C
0?
#290000
0#
03
04
1(
#295000
1#
13
14
0(
0D
08
0A
09
0>
0/
00
0'
0&
1C
1;
#300000
0#
03
04
1(
#305000
1#
13
14
0(
1D
1<
1B
1A
1?
1:
19
17
1/
11
1'
1%
#310000
0#
03
04
1(
#315000
1#
13
14
0(
1@
18
0B
0A
0:
12
10
1$
1&
0;
#320000
0#
03
04
1(
#325000
1#
13
14
0(
0<
1>
1=
09
07
01
0%
1;
#330000
0#
03
04
1(
#335000
1#
13
14
0(
1<
08
1A
0>
11
00
1%
0&
0C
0?
#340000
0#
03
04
1(
#345000
1#
13
14
0(
0D
0@
1?
17
0=
0/
02
0'
0$
0?
#350000
0#
03
04
1(
#355000
1#
13
14
0(
18
0A
10
1&
1C
#360000
0#
03
04
1(
#365000
1#
13
14
0(
1D
1A
1?
19
07
1/
1'
0C
0;
#370000
0#
03
04
1(
#375000
1#
13
14
0(
0D
1@
0<
08
1B
0A
0?
1:
09
17
0/
12
01
00
0'
1$
0%
0&
1C
#380000
1!
0#
16
03
04
1(
0C
1>
1=
1;
1?
#385000
1#
13
14
0(
1<
18
0B
1A
0>
0=
0:
19
11
10
1%
1&
0?
0;
#390000
0#
03
04
1(
#395000
1#
13
14
0(
0@
0<
0A
1>
07
02
01
0$
0%
1C
#400000
0#
03
04
1(
#405000
1#
13
14
0(
1D
08
1A
09
0>
1/
00
1'
0&
0C
1;
1?
#410000
0#
03
04
1(
#415000
1#
13
14
0(
0D
1@
1<
0A
0?
19
17
1=
0/
12
11
0'
1$
1%
1C
0;
1?
#420000
0#
03
04
1(
#425000
1#
13
14
0(
1D
0<
18
0?
09
07
1>
1/
01
10
1'
0%
1&
1;
1?
#430000
0#
03
04
1(
#435000
1#
13
14
0(
1<
08
1A
0>
11
00
1%
0&
0C
0?
#440000
0#
03
04
1(
#445000
1#
13
14
0(
0D
0@
1?
17
0=
0/
02
0'
0$
0?
#450000
0#
03
04
1(
#455000
1#
13
14
0(
18
0A
10
1&
1C
#460000
0#
03
04
1(
#465000
1#
13
14
0(
1D
1A
1?
19
07
1/
1'
0C
0;
#470000
0#
03
04
1(
#475000
1#
13
14
0(
0D
1@
0<
08
1B
0A
0?
1:
09
17
1>
1=
0/
12
01
00
0'
1$
0%
0&
1;
1?
#480000
0"
0!
0#
05
06
03
04
1(
1C
0;
0>
0=
0?
#485000
1#
13
14
0(
1D
0@
18
0B
1A
1?
0:
19
07
1>
1/
02
10
1'
0$
1&
0C
0?
#490000
0#
03
04
1(
#495000
1#
13
14
0(
0D
08
0A
1?
09
0>
0/
00
0'
0&
1C
1;
0?
#500000
0#
03
04
1(
#505000
1#
13
14
0(
1D
1<
1B
1A
1?
1:
19
17
1/
11
1'
1%
0C
0;
#510000
0#
03
04
1(
#515000
1#
13
14
0(
0D
1@
0<
18
0B
0A
0?
0:
1>
1=
0/
12
01
10
0'
1$
0%
1&
1C
1?
#520000
0#
03
04
1(
#525000
1#
13
14
0(
1D
09
07
1/
1'
1;
#530000
0#
03
04
1(
#535000
1#
13
14
0(
1<
08
1A
0>
11
00
1%
0&
0C
0?
#540000
0#
03
04
1(
#545000
1#
13
14
0(
0D
0@
1?
17
0=
0/
02
0'
0$
0?
#550000
0#
03
04
1(
#555000
1#
13
14
0(
18
0A
10
1&
1C
#560000
0#
03
04
1(
#565000
1#
13
14
0(
1D
1A
1?
19
07
1/
1'
0C
0;
#570000
0#
03
04
1(
#575000
1#
13
14
0(
0D
1@
0<
08
1B
0A
0?
1:
09
17
0/
12
01
00
0'
1$
0%
0&
1C
#580000
0#
03
04
1(
#585000
1#
13
14
0(
1D
0@
18
0B
1A
1?
0:
19
07
1>
1/
02
10
1'
0$
1&
0C
0?
#590000
0#
03
04
1(
#595000
1#
13
14
0(
0D
08
0A
1?
09
0>
0/
00
0'
0&
1C
1;
0?
#600000
0#
03
04
1(
#605000
1#
13
14
0(
1D
1<
1B
1A
1?
1:
19
17
1/
11
1'
1%
0C
0;
#610000
0#
03
04
1(
#615000
1#
13
14
0(
0D
1@
0<
18
0B
0A
0?
0:
1>
1=
0/
12
01
10
0'
1$
0%
1&
1C
1?
#620000
0#
03
04
1(
#625000
1#
13
14
0(
1D
09
07
1/
1'
1;
#630000
0#
03
04
1(
#635000
1#
13
14
0(
1<
08
1A
0>
11
00
1%
0&
0C
0?
#640000
0#
03
04
1(
#645000
1#
13
14
0(
0D
0@
1?
17
0=
0/
02
0'
0$
0?
#650000
0#
03
04
1(
#655000
1#
13
14
0(
18
0A
10
1&
1C
#660000
0#
03
04
1(
#665000
1#
13
14
0(
1D
1A
1?
19
07
1/
1'
0C
0;
#670000
0#
03
04
1(
#675000
1#
13
14
0(
0D
1@
0<
08
1B
0A
0?
1:
09
17
0/
12
01
00
0'
1$
0%
0&
1C
#680000
0#
03
04
1(
#685000
1#
13
14
0(
1D
0@
18
0B
1A
1?
0:
19
07
1>
1/
02
10
1'
0$
1&
0C
0?
#690000
0#
03
04
1(
#695000
1#
13
14
0(
0D
08
0A
1?
09
0>
0/
00
0'
0&
1C
1;
0?
#700000
0#
03
04
1(
#705000
1#
13
14
0(
1D
1<
1B
1A
1?
1:
19
17
1/
11
1'
1%
0C
0;
#710000
0#
03
04
1(
#715000
1#
13
14
0(
0D
1@
0<
18
0B
0A
0?
0:
1>
1=
0/
12
01
10
0'
1$
0%
1&
1C
1?
#720000
0#
03
04
1(
#725000
1#
13
14
0(
1D
09
07
1/
1'
1;
#730000
0#
03
04
1(
#735000
1#
13
14
0(
1<
08
1A
0>
11
00
1%
0&
0C
0?
#740000
0#
03
04
1(
#745000
1#
13
14
0(
0D
0@
1?
17
0=
0/
02
0'
0$
0?
#750000
0#
03
04
1(
#755000
1#
13
14
0(
18
0A
10
1&
1C
#760000
0#
03
04
1(
#765000
1#
13
14
0(
1D
1A
1?
19
07
1/
1'
0C
0;
#770000
0#
03
04
1(
#775000
1#
13
14
0(
0D
1@
0<
08
1B
0A
0?
1:
09
17
0/
12
01
00
0'
1$
0%
0&
1C
#780000
0#
03
04
1(
#785000
1#
13
14
0(
1D
0@
18
0B
1A
1?
0:
19
07
1>
1/
02
10
1'
0$
1&
0C
0?
#790000
0#
03
04
1(
#795000
1#
13
14
0(
0D
08
0A
1?
09
0>
0/
00
0'
0&
1C
1;
0?
#800000
0#
03
04
1(
#805000
1#
13
14
0(
1D
1<
1B
1A
1?
1:
19
17
1/
11
1'
1%
0C
0;
#810000
0#
03
04
1(
#815000
1#
13
14
0(
0D
1@
0<
18
0B
0A
0?
0:
1>
1=
0/
12
01
10
0'
1$
0%
1&
1C
1?
#820000
0#
03
04
1(
#825000
1#
13
14
0(
1D
09
07
1/
1'
1;
#830000
0#
03
04
1(
#835000
1#
13
14
0(
1<
08
1A
0>
11
00
1%
0&
0C
0?
#840000
0#
03
04
1(
#845000
1#
13
14
0(
0D
0@
1?
17
0=
0/
02
0'
0$
0?
#850000
0#
03
04
1(
#855000
1#
13
14
0(
18
0A
10
1&
1C
#860000
0#
03
04
1(
#865000
1#
13
14
0(
1D
1A
1?
19
07
1/
1'
0C
0;
#870000
0#
03
04
1(
#875000
1#
13
14
0(
0D
1@
0<
08
1B
0A
0?
1:
09
17
0/
12
01
00
0'
1$
0%
0&
1C
#880000
0#
03
04
1(
#885000
1#
13
14
0(
1D
0@
18
0B
1A
1?
0:
19
07
1>
1/
02
10
1'
0$
1&
0C
0?
#890000
0#
03
04
1(
#895000
1#
13
14
0(
0D
08
0A
1?
09
0>
0/
00
0'
0&
1C
1;
0?
#900000
0#
03
04
1(
#905000
1#
13
14
0(
1D
1<
1B
1A
1?
1:
19
17
1/
11
1'
1%
0C
0;
#910000
0#
03
04
1(
#915000
1#
13
14
0(
0D
1@
0<
18
0B
0A
0?
0:
1>
1=
0/
12
01
10
0'
1$
0%
1&
1C
1?
#920000
0#
03
04
1(
#925000
1#
13
14
0(
1D
09
07
1/
1'
1;
#930000
0#
03
04
1(
#935000
1#
13
14
0(
1<
08
1A
0>
11
00
1%
0&
0C
0?
#940000
0#
03
04
1(
#945000
1#
13
14
0(
0D
0@
1?
17
0=
0/
02
0'
0$
0?
#950000
0#
03
04
1(
#955000
1#
13
14
0(
18
0A
10
1&
1C
#960000
0#
03
04
1(
#965000
1#
13
14
0(
1D
1A
1?
19
07
1/
1'
0C
0;
#970000
0#
03
04
1(
#975000
1#
13
14
0(
0D
1@
0<
08
1B
0A
0?
1:
09
17
0/
12
01
00
0'
1$
0%
0&
1C
#980000
0#
03
04
1(
#985000
1#
13
14
0(
1D
0@
18
0B
1A
1?
0:
19
07
1>
1/
02
10
1'
0$
1&
0C
0?
#990000
0#
03
04
1(
#995000
1#
13
14
0(
0D
08
0A
1?
09
0>
0/
00
0'
0&
1C
1;
0?
