sem3/AVM/Q41/simulation/qsim/Q41.msim.vcd
$comment
	File created using the following command:
		vcd file Q41.msim.vcd -direction
$end
$date
	Mon Nov 27 14:17:50 2023
$end
$version
	ModelSim Version 10.1d
$end
$timescale
	1ps
$end
$scope module Q41_vlg_vec_tst $end
$var reg 1 ! a $end
$var reg 1 " b $end
$var reg 1 # clock $end
$var wire 1 $ q [3] $end
$var wire 1 % q [2] $end
$var wire 1 & q [1] $end
$var wire 1 ' q [0] $end
$var wire 1 ( sampler $end
$scope module i1 $end
$var wire 1 ) gnd $end
$var wire 1 * vcc $end
$var wire 1 + unknown $end
$var tri1 1 , devclrn $end
$var tri1 1 - devpor $end
$var tri1 1 . devoe $end
$var wire 1 / q[3]~output_o $end
$var wire 1 0 q[2]~output_o $end
$var wire 1 1 q[1]~output_o $end
$var wire 1 2 q[0]~output_o $end
$var wire 1 3 clock~input_o $end
$var wire 1 4 clock~inputclkctrl_outclk $end
$var wire 1 5 b~input_o $end
$var wire 1 6 inst24~combout $end
$var wire 1 7 inst31~q $end
$var wire 1 8 inst25~10_combout $end
$var wire 1 9 inst25~15_combout $end
$var wire 1 : inst25~14_combout $end
$var wire 1 ; a~input_o $end
$var wire 1 < inst25~11_combout $end
$var wire 1 = inst~0_combout $end
$var wire 1 > inst25~12_combout $end
$var wire 1 ? inst25~13_combout $end
$var wire 1 @ inst29~q $end
$var wire 1 A inst~1_combout $end
$var wire 1 B inst21~0_combout $end
$var wire 1 C inst23~3_combout $end
$var wire 1 D inst23~2_combout $end
$var wire 1 E inst33~q $end
$var wire 1 F inst26~4_combout $end
$var wire 1 G inst26~2_combout $end
$var wire 1 H inst26~3_combout $end
$var wire 1 I inst27~q $end
$upscope $end
$upscope $end
$enddefinitions $end
#0
$dumpvars
0!
0"
0#
0'
0&
0%
0$
x(
0)
1*
x+
1,
1-
1.
0/
00
01
02
03
04
05
06
07
08
09
0:
0;
0<
0=
1>
1?
0@
0A
0B
0C
1D
0E
1F
0G
0H
0I
$end
#5000
1#
13
14
0(
1E
1@
0F
18
16
12
10
1'
1%
1H
19
0D
0?
#10000
0#
03
04
1(
#15000
1#
13
14
0(
1I
0E
0@
17
1G
1C
1/
02
00
11
1$
0'
0%
1&
1D
#20000
0#
03
04
1(
#25000
1#
13
14
0(
1E
0G
1F
0C
1A
06
12
1'
1?
#30000
0#
03
04
1(
#35000
1#
13
14
0(
1@
07
1G
0A
1:
0H
10
01
1%
0&
0D
#40000
0#
03
04
1(
#45000
1#
13
14
0(
0I
0E
16
0/
02
0$
0'
#50000
0#
03
04
1(
#55000
1#
13
14
0(
17
0:
08
11
1&
0?
09
1D
1?
#60000
0#
03
04
1(
#65000
1#
13
14
0(
1E
0G
18
06
12
1'
1H
19
0D
0?
#70000
0#
03
04
1(
#75000
1#
13
14
0(
1I
0E
0@
07
1G
1=
16
08
0H
1/
02
00
01
1$
0'
0%
0&
1B
1D
#80000
0#
03
04
1(
#85000
1#
13
14
0(
0I
1E
17
0=
09
06
18
0/
12
11
0$
1'
1&
0B
1?
19
0D
0?
#90000
0#
03
04
1(
#95000
1#
13
14
0(
0E
07
0G
08
02
01
0'
0&
09
1D
1?
#100000
0#
03
04
1(
#105000
1#
13
14
0(
1E
1@
0F
18
16
12
10
1'
1%
1H
19
0D
0?
#110000
0#
03
04
1(
#115000
1#
13
14
0(
1I
0E
0@
17
1G
1C
1/
02
00
11
1$
0'
0%
1&
1D
#120000
0#
03
04
1(
#125000
1#
13
14
0(
1E
0G
1F
0C
1A
06
12
1'
1?
#130000
0#
03
04
1(
#135000
1#
13
14
0(
1@
07
1G
0A
1:
0H
10
01
1%
0&
0D
#140000
0#
03
04
1(
#145000
1#
13
14
0(
0I
0E
16
0/
02
0$
0'
#150000
0#
03
04
1(
#155000
1#
13
14
0(
17
0:
08
11
1&
0?
09
1D
1?
#160000
0#
03
04
1(
#165000
1#
13
14
0(
1E
0G
18
06
12
1'
1H
19
0D
0?
#170000
0#
03
04
1(
#175000
1#
13
14
0(
1I
0E
0@
07
1G
1=
16
08
0H
1/
02
00
01
1$
0'
0%
0&
1B
1D
#180000
1!
0#
1;
03
04
1(
0B
0>
0D
1H
1?
#185000
1#
13
14
0(
1@
17
0=
10
11
1%
1&
1>
0H
0?
#190000
0#
03
04
1(
#195000
1#
13
14
0(
0I
0@
0G
1C
09
06
18
0/
00
0$
0%
1H
1D
1?
19
0?
#200000
0#
03
04
1(
#205000
1#
13
14
0(
1I
1E
07
0C
1<
0H
1/
12
01
1$
1'
0&
0D
0>
1H
1?
#210000
0#
03
04
1(
#215000
1#
13
14
0(
0E
1@
1G
0F
1C
0<
16
02
10
0'
1%
1D
1>
0?
#220000
0#
03
04
1(
#225000
1#
13
14
0(
1E
0@
17
0G
1F
0C
1A
06
12
00
11
1'
0%
1&
1?
#230000
0#
03
04
1(
#235000
1#
13
14
0(
1@
07
1G
0A
1:
0H
10
01
1%
0&
0D
#240000
0#
03
04
1(
#245000
1#
13
14
0(
0I
0E
16
0/
02
0$
0'
#250000
0#
03
04
1(
#255000
1#
13
14
0(
17
0:
08
11
1&
0?
09
1D
1?
#260000
0#
03
04
1(
#265000
1#
13
14
0(
1E
0G
18
06
12
1'
1H
19
0D
0?
#270000
0#
03
04
1(
#275000
1#
13
14
0(
1I
0E
0@
07
1G
1=
16
08
0H
1/
02
00
01
1$
0'
0%
0&
0>
1H
1?
#280000
1"
0!
0#
15
0;
03
04
1(
1B
1>
1D
0H
0?
#285000
1#
13
14
0(
0I
1E
17
0=
09
06
18
0/
12
11
0$
1'
1&
0B
1?
19
0D
0?
#290000
0#
03
04
1(
#295000
1#
13
14
0(
0E
07
08
02
01
0'
0&
09
1D
1?
#300000
0#
03
04
1(
#305000
1#
13
14
0(
1E
1@
0G
0F
16
12
10
1'
1%
1H
#310000
0#
03
04
1(
#315000
1#
13
14
0(
1I
17
1G
1C
19
18
1/
11
1$
1&
0?
#320000
0#
03
04
1(
#325000
1#
13
14
0(
0@
0G
1F
0C
1A
06
00
0%
1?
#330000
0#
03
04
1(
#335000
1#
13
14
0(
1@
07
1G
0A
1:
08
0H
10
01
1%
0&
0D
#340000
0#
03
04
1(
#345000
1#
13
14
0(
0I
0E
09
16
18
0/
02
0$
0'
1D
19
0D
#350000
0#
03
04
1(
#355000
1#
13
14
0(
17
0:
08
11
1&
0?
09
1D
1?
#360000
0#
03
04
1(
#365000
1#
13
14
0(
1E
0G
18
06
12
1'
1H
19
0D
0?
#370000
0#
03
04
1(
#375000
1#
13
14
0(
1I
0E
0@
07
1G
1=
16
08
0H
1/
02
00
01
1$
0'
0%
0&
1B
1D
#380000
1!
0#
1;
03
04
1(
0B
0>
0D
1H
1?
#385000
1#
13
14
0(
1@
17
0=
10
11
1%
1&
1>
0H
0?
#390000
0#
03
04
1(
#395000
1#
13
14
0(
0I
0@
1C
09
06
18
0/
00
0$
0%
1D
1?
19
0?
#400000
0#
03
04
1(
#405000
1#
13
14
0(
1E
07
0C
1<
12
01
1'
0&
0D
0>
1H
1?
#410000
0#
03
04
1(
#415000
1#
13
14
0(
1I
0E
1@
0F
1C
16
0<
1/
02
10
1$
0'
1%
1D
1>
0?
#420000
0#
03
04
1(
#425000
1#
13
14
0(
1E
0@
17
0G
1F
0C
1A
06
12
00
11
1'
0%
1&
1?
#430000
0#
03
04
1(
#435000
1#
13
14
0(
1@
07
1G
0A
1:
08
0H
10
01
1%
0&
0D
#440000
0#
03
04
1(
#445000
1#
13
14
0(
0I
0E
09
16
18
0/
02
0$
0'
1D
19
0D
#450000
0#
03
04
1(
#455000
1#
13
14
0(
17
0:
08
11
1&
0?
09
1D
1?
#460000
0#
03
04
1(
#465000
1#
13
14
0(
1E
0G
18
06
12
1'
1H
19
0D
0?
#470000
0#
03
04
1(
#475000
1#
13
14
0(
1I
0E
0@
07
1G
1=
16
08
0H
1/
02
00
01
1$
0'
0%
0&
0>
1H
1?
#480000
0"
0!
0#
05
0;
03
04
1(
1B
1>
1D
0H
0?
#485000
1#
13
14
0(
0I
1E
17
0=
09
06
18
0/
12
11
0$
1'
1&
0B
1?
19
0D
0?
#490000
0#
03
04
1(
#495000
1#
13
14
0(
0E
07
0G
08
02
01
0'
0&
09
1D
1?
#500000
0#
03
04
1(
#505000
1#
13
14
0(
1E
1@
0F
18
16
12
10
1'
1%
1H
19
0D
0?
#510000
0#
03
04
1(
#515000
1#
13
14
0(
1I
0E
0@
17
1G
1C
1/
02
00
11
1$
0'
0%
1&
1D
#520000
0#
03
04
1(
#525000
1#
13
14
0(
1E
0G
1F
0C
1A
06
12
1'
1?
#530000
0#
03
04
1(
#535000
1#
13
14
0(
1@
07
1G
0A
1:
0H
10
01
1%
0&
0D
#540000
0#
03
04
1(
#545000
1#
13
14
0(
0I
0E
16
0/
02
0$
0'
#550000
0#
03
04
1(
#555000
1#
13
14
0(
17
0:
08
11
1&
0?
09
1D
1?
#560000
0#
03
04
1(
#565000
1#
13
14
0(
1E
0G
18
06
12
1'
1H
19
0D
0?
#570000
0#
03
04
1(
#575000
1#
13
14
0(
1I
0E
0@
07
1G
1=
16
08
0H
1/
02
00
01
1$
0'
0%
0&
1B
1D
#580000
0#
03
04
1(
#585000
1#
13
14
0(
0I
1E
17
0=
09
06
18
0/
12
11
0$
1'
1&
0B
1?
19
0D
0?
#590000
0#
03
04
1(
#595000
1#
13
14
0(
0E
07
0G
08
02
01
0'
0&
09
1D
1?
#600000
0#
03
04
1(
#605000
1#
13
14
0(
1E
1@
0F
18
16
12
10
1'
1%
1H
19
0D
0?
#610000
0#
03
04
1(
#615000
1#
13
14
0(
1I
0E
0@
17
1G
1C
1/
02
00
11
1$
0'
0%
1&
1D
#620000
0#
03
04
1(
#625000
1#
13
14
0(
1E
0G
1F
0C
1A
06
12
1'
1?
#630000
0#
03
04
1(
#635000
1#
13
14
0(
1@
07
1G
0A
1:
0H
10
01
1%
0&
0D
#640000
0#
03
04
1(
#645000
1#
13
14
0(
0I
0E
16
0/
02
0$
0'
#650000
0#
03
04
1(
#655000
1#
13
14
0(
17
0:
08
11
1&
0?
09
1D
1?
#660000
0#
03
04
1(
#665000
1#
13
14
0(
1E
0G
18
06
12
1'
1H
19
0D
0?
#670000
0#
03
04
1(
#675000
1#
13
14
0(
1I
0E
0@
07
1G
1=
16
08
0H
1/
02
00
01
1$
0'
0%
0&
1B
1D
#680000
0#
03
04
1(
#685000
1#
13
14
0(
0I
1E
17
0=
09
06
18
0/
12
11
0$
1'
1&
0B
1?
19
0D
0?
#690000
0#
03
04
1(
#695000
1#
13
14
0(
0E
07
0G
08
02
01
0'
0&
09
1D
1?
#700000
0#
03
04
1(
#705000
1#
13
14
0(
1E
1@
0F
18
16
12
10
1'
1%
1H
19
0D
0?
#710000
0#
03
04
1(
#715000
1#
13
14
0(
1I
0E
0@
17
1G
1C
1/
02
00
11
1$
0'
0%
1&
1D
#720000
0#
03
04
1(
#725000
1#
13
14
0(
1E
0G
1F
0C
1A
06
12
1'
1?
#730000
0#
03
04
1(
#735000
1#
13
14
0(
1@
07
1G
0A
1:
0H
10
01
1%
0&
0D
#740000
0#
03
04
1(
#745000
1#
13
14
0(
0I
0E
16
0/
02
0$
0'
#750000
0#
03
04
1(
#755000
1#
13
14
0(
17
0:
08
11
1&
0?
09
1D
1?
#760000
0#
03
04
1(
#765000
1#
13
14
0(
1E
0G
18
06
12
1'
1H
19
0D
0?
#770000
0#
03
04
1(
#775000
1#
13
14
0(
1I
0E
0@
07
1G
1=
16
08
0H
1/
02
00
01
1$
0'
0%
0&
1B
1D
#780000
0#
03
04
1(
#785000
1#
13
14
0(
0I
1E
17
0=
09
06
18
0/
12
11
0$
1'
1&
0B
1?
19
0D
0?
#790000
0#
03
04
1(
#795000
1#
13
14
0(
0E
07
0G
08
02
01
0'
0&
09
1D
1?
#800000
0#
03
04
1(
#805000
1#
13
14
0(
1E
1@
0F
18
16
12
10
1'
1%
1H
19
0D
0?
#810000
0#
03
04
1(
#815000
1#
13
14
0(
1I
0E
0@
17
1G
1C
1/
02
00
11
1$
0'
0%
1&
1D
#820000
0#
03
04
1(
#825000
1#
13
14
0(
1E
0G
1F
0C
1A
06
12
1'
1?
#830000
0#
03
04
1(
#835000
1#
13
14
0(
1@
07
1G
0A
1:
0H
10
01
1%
0&
0D
#840000
0#
03
04
1(
#845000
1#
13
14
0(
0I
0E
16
0/
02
0$
0'
#850000
0#
03
04
1(
#855000
1#
13
14
0(
17
0:
08
11
1&
0?
09
1D
1?
#860000
0#
03
04
1(
#865000
1#
13
14
0(
1E
0G
18
06
12
1'
1H
19
0D
0?
#870000
0#
03
04
1(
#875000
1#
13
14
0(
1I
0E
0@
07
1G
1=
16
08
0H
1/
02
00
01
1$
0'
0%
0&
1B
1D
#880000
0#
03
04
1(
#885000
1#
13
14
0(
0I
1E
17
0=
09
06
18
0/
12
11
0$
1'
1&
0B
1?
19
0D
0?
#890000
0#
03
04
1(
#895000
1#
13
14
0(
0E
07
0G
08
02
01
0'
0&
09
1D
1?
#900000
0#
03
04
1(
#905000
1#
13
14
0(
1E
1@
0F
18
16
12
10
1'
1%
1H
19
0D
0?
#910000
0#
03
04
1(
#915000
1#
13
14
0(
1I
0E
0@
17
1G
1C
1/
02
00
11
1$
0'
0%
1&
1D
#920000
0#
03
04
1(
#925000
1#
13
14
0(
1E
0G
1F
0C
1A
06
12
1'
1?
#930000
0#
03
04
1(
#935000
1#
13
14
0(
1@
07
1G
0A
1:
0H
10
01
1%
0&
0D
#940000
0#
03
04
1(
#945000
1#
13
14
0(
0I
0E
16
0/
02
0$
0'
#950000
0#
03
04
1(
#955000
1#
13
14
0(
17
0:
08
11
1&
0?
09
1D
1?
#960000
0#
03
04
1(
#965000
1#
13
14
0(
1E
0G
18
06
12
1'
1H
19
0D
0?
#970000
0#
03
04
1(
#975000
1#
13
14
0(
1I
0E
0@
07
1G
1=
16
08
0H
1/
02
00
01
1$
0'
0%
0&
1B
1D
#980000
0#
03
04
1(
#985000
1#
13
14
0(
0I
1E
17
0=
09
06
18
0/
12
11
0$
1'
1&
0B
1?
19
0D
0?
#990000
0#
03
04
1(
#995000
1#
13
14
0(
0E
07
0G
08
02
01
0'
0&
09
1D
1?
